<?xml version="1.0" encoding="UTF-8" standalone="no"?>
<!-- Created with Inkscape (http://www.inkscape.org/) -->

<svg
   width="48"
   height="48"
   viewBox="0 0 12.7 12.7"
   version="1.1"
   id="svg5"
   sodipodi:docname="logo.svg"
   inkscape:export-filename="/home/johnh/projects/GeoClue-Rs/logo.png"
   inkscape:export-xdpi="1024"
   inkscape:export-ydpi="1024"
   inkscape:version="1.1 (c4e8f9ed74, 2021-05-24)"
   xmlns:inkscape="http://www.inkscape.org/namespaces/inkscape"
   xmlns:sodipodi="http://sodipodi.sourceforge.net/DTD/sodipodi-0.dtd"
   xmlns:xlink="http://www.w3.org/1999/xlink"
   xmlns="http://www.w3.org/2000/svg"
   xmlns:svg="http://www.w3.org/2000/svg">
  <sodipodi:namedview
     id="namedview7"
     pagecolor="#ffffff"
     bordercolor="#666666"
     borderopacity="1.0"
     inkscape:pageshadow="2"
     inkscape:pageopacity="0.0"
     inkscape:pagecheckerboard="0"
     inkscape:document-units="px"
     showgrid="false"
     inkscape:zoom="22.185475"
     inkscape:cx="17.331159"
     inkscape:cy="12.508184"
     inkscape:window-width="1908"
     inkscape:window-height="1038"
     inkscape:window-x="0"
     inkscape:window-y="30"
     inkscape:window-maximized="1"
     inkscape:current-layer="g3761">
    <inkscape:grid
       type="xygrid"
       id="grid824"
       empspacing="4" />
  </sodipodi:namedview>
  <defs
     id="defs2">
    <linearGradient
       inkscape:collect="always"
       id="linearGradient876">
      <stop
         style="stop-color:#26a269;stop-opacity:1"
         offset="0"
         id="stop872" />
      <stop
         style="stop-color:#33d17a;stop-opacity:1"
         offset="0.5"
         id="stop1121" />
      <stop
         style="stop-color:#8ff0a4;stop-opacity:1"
         offset="1"
         id="stop874" />
    </linearGradient>
    <linearGradient
       inkscape:collect="always"
       xlink:href="#linearGradient876"
       id="linearGradient878"
       x1="6.3499999"
       y1="12.7"
       x2="6.3499999"
       y2="0"
       gradientUnits="userSpaceOnUse" />
    <clipPath
       id="A">
      <path
         d="M 0,0 H 1024 V 800 H 0 Z"
         id="path2629" />
    </clipPath>
    <mask
       id="z">
      <g
         filter="url(#a)"
         id="g2626">
        <path
           d="M 0,0 H 16 V 16 H 0 Z"
           fill-opacity="0.5"
           id="path2624" />
      </g>
    </mask>
    <filter
       id="a"
       height="1"
       width="1"
       x="0"
       y="0">
      <feColorMatrix
         in="SourceGraphic"
         type="matrix"
         values="0 0 0 0 1 0 0 0 0 1 0 0 0 0 1 0 0 0 1 0"
         id="feColorMatrix2525" />
    </filter>
    <clipPath
       id="y">
      <path
         d="M 0,0 H 1024 V 800 H 0 Z"
         id="path2621" />
    </clipPath>
    <mask
       id="x">
      <g
         filter="url(#a)"
         id="g2618">
        <path
           d="M 0,0 H 16 V 16 H 0 Z"
           fill-opacity="0.5"
           id="path2616" />
      </g>
    </mask>
    <filter
       id="filter2769"
       height="1"
       width="1"
       x="0"
       y="0">
      <feColorMatrix
         in="SourceGraphic"
         type="matrix"
         values="0 0 0 0 1 0 0 0 0 1 0 0 0 0 1 0 0 0 1 0"
         id="feColorMatrix2767" />
    </filter>
    <clipPath
       id="w">
      <path
         d="M 0,0 H 1024 V 800 H 0 Z"
         id="path2613" />
    </clipPath>
    <mask
       id="v">
      <g
         filter="url(#a)"
         id="g2610">
        <path
           d="M 0,0 H 16 V 16 H 0 Z"
           fill-opacity="0.4"
           id="path2608" />
      </g>
    </mask>
    <filter
       id="filter2778"
       height="1"
       width="1"
       x="0"
       y="0">
      <feColorMatrix
         in="SourceGraphic"
         type="matrix"
         values="0 0 0 0 1 0 0 0 0 1 0 0 0 0 1 0 0 0 1 0"
         id="feColorMatrix2776" />
    </filter>
    <clipPath
       id="u">
      <path
         d="M 0,0 H 1024 V 800 H 0 Z"
         id="path2605" />
    </clipPath>
    <mask
       id="t">
      <g
         filter="url(#a)"
         id="g2602">
        <path
           d="M 0,0 H 16 V 16 H 0 Z"
           fill-opacity="0.4"
           id="path2600" />
      </g>
    </mask>
    <filter
       id="filter2787"
       height="1"
       width="1"
       x="0"
       y="0">
      <feColorMatrix
         in="SourceGraphic"
         type="matrix"
         values="0 0 0 0 1 0 0 0 0 1 0 0 0 0 1 0 0 0 1 0"
         id="feColorMatrix2785" />
    </filter>
    <clipPath
       id="s">
      <path
         d="M 0,0 H 1024 V 800 H 0 Z"
         id="path2597" />
    </clipPath>
    <mask
       id="r">
      <g
         filter="url(#a)"
         id="g2594">
        <path
           d="M 0,0 H 16 V 16 H 0 Z"
           fill-opacity="0.5"
           id="path2592" />
      </g>
    </mask>
    <filter
       id="filter2796"
       height="1"
       width="1"
       x="0"
       y="0">
      <feColorMatrix
         in="SourceGraphic"
         type="matrix"
         values="0 0 0 0 1 0 0 0 0 1 0 0 0 0 1 0 0 0 1 0"
         id="feColorMatrix2794" />
    </filter>
    <clipPath
       id="q">
      <path
         d="M 0,0 H 1024 V 800 H 0 Z"
         id="path2589" />
    </clipPath>
    <mask
       id="p">
      <g
         filter="url(#a)"
         id="g2586">
        <path
           d="M 0,0 H 16 V 16 H 0 Z"
           fill-opacity="0.3"
           id="path2584" />
      </g>
    </mask>
    <filter
       id="filter2805"
       height="1"
       width="1"
       x="0"
       y="0">
      <feColorMatrix
         in="SourceGraphic"
         type="matrix"
         values="0 0 0 0 1 0 0 0 0 1 0 0 0 0 1 0 0 0 1 0"
         id="feColorMatrix2803" />
    </filter>
    <clipPath
       id="o">
      <path
         d="M 0,0 H 1024 V 800 H 0 Z"
         id="path2581" />
    </clipPath>
    <mask
       id="n">
      <g
         filter="url(#a)"
         id="g2578">
        <path
           d="M 0,0 H 16 V 16 H 0 Z"
           fill-opacity="0.05"
           id="path2576" />
      </g>
    </mask>
    <filter
       id="filter2814"
       height="1"
       width="1"
       x="0"
       y="0">
      <feColorMatrix
         in="SourceGraphic"
         type="matrix"
         values="0 0 0 0 1 0 0 0 0 1 0 0 0 0 1 0 0 0 1 0"
         id="feColorMatrix2812" />
    </filter>
    <clipPath
       id="m">
      <path
         d="M 0,0 H 1024 V 800 H 0 Z"
         id="path2573" />
    </clipPath>
    <mask
       id="l">
      <g
         filter="url(#a)"
         id="g2570">
        <path
           d="M 0,0 H 16 V 16 H 0 Z"
           fill-opacity="0.05"
           id="path2568" />
      </g>
    </mask>
    <filter
       id="filter2823"
       height="1"
       width="1"
       x="0"
       y="0">
      <feColorMatrix
         in="SourceGraphic"
         type="matrix"
         values="0 0 0 0 1 0 0 0 0 1 0 0 0 0 1 0 0 0 1 0"
         id="feColorMatrix2821" />
    </filter>
    <clipPath
       id="k">
      <path
         d="M 0,0 H 1024 V 800 H 0 Z"
         id="path2565" />
    </clipPath>
    <mask
       id="j">
      <g
         filter="url(#a)"
         id="g2562">
        <path
           d="M 0,0 H 16 V 16 H 0 Z"
           fill-opacity="0.05"
           id="path2560" />
      </g>
    </mask>
    <filter
       id="filter2832"
       height="1"
       width="1"
       x="0"
       y="0">
      <feColorMatrix
         in="SourceGraphic"
         type="matrix"
         values="0 0 0 0 1 0 0 0 0 1 0 0 0 0 1 0 0 0 1 0"
         id="feColorMatrix2830" />
    </filter>
    <clipPath
       id="i">
      <path
         d="M 0,0 H 1024 V 800 H 0 Z"
         id="path2557" />
    </clipPath>
    <mask
       id="h">
      <g
         filter="url(#a)"
         id="g2554">
        <path
           d="M 0,0 H 16 V 16 H 0 Z"
           fill-opacity="0.05"
           id="path2552" />
      </g>
    </mask>
    <filter
       id="filter2841"
       height="1"
       width="1"
       x="0"
       y="0">
      <feColorMatrix
         in="SourceGraphic"
         type="matrix"
         values="0 0 0 0 1 0 0 0 0 1 0 0 0 0 1 0 0 0 1 0"
         id="feColorMatrix2839" />
    </filter>
    <clipPath
       id="g">
      <path
         d="M 0,0 H 1024 V 800 H 0 Z"
         id="path2549" />
    </clipPath>
    <mask
       id="f">
      <g
         filter="url(#a)"
         id="g2546">
        <path
           d="M 0,0 H 16 V 16 H 0 Z"
           fill-opacity="0.05"
           id="path2544" />
      </g>
    </mask>
    <filter
       id="filter2850"
       height="1"
       width="1"
       x="0"
       y="0">
      <feColorMatrix
         in="SourceGraphic"
         type="matrix"
         values="0 0 0 0 1 0 0 0 0 1 0 0 0 0 1 0 0 0 1 0"
         id="feColorMatrix2848" />
    </filter>
    <clipPath
       id="e">
      <path
         d="M 0,0 H 1024 V 800 H 0 Z"
         id="path2541" />
    </clipPath>
    <mask
       id="d">
      <g
         filter="url(#a)"
         id="g2538">
        <path
           d="M 0,0 H 16 V 16 H 0 Z"
           fill-opacity="0.05"
           id="path2536" />
      </g>
    </mask>
    <filter
       id="filter2859"
       height="1"
       width="1"
       x="0"
       y="0">
      <feColorMatrix
         in="SourceGraphic"
         type="matrix"
         values="0 0 0 0 1 0 0 0 0 1 0 0 0 0 1 0 0 0 1 0"
         id="feColorMatrix2857" />
    </filter>
    <clipPath
       id="c">
      <path
         d="M 0,0 H 1024 V 800 H 0 Z"
         id="path2533" />
    </clipPath>
    <mask
       id="b">
      <g
         filter="url(#a)"
         id="g2530">
        <path
           d="M 0,0 H 16 V 16 H 0 Z"
           fill-opacity="0.3"
           id="path2528" />
      </g>
    </mask>
    <filter
       id="filter2868"
       height="1"
       width="1"
       x="0"
       y="0">
      <feColorMatrix
         in="SourceGraphic"
         type="matrix"
         values="0 0 0 0 1 0 0 0 0 1 0 0 0 0 1 0 0 0 1 0"
         id="feColorMatrix2866" />
    </filter>
  </defs>
  <g
     inkscape:label="Layer 1"
     inkscape:groupmode="layer"
     id="layer1">
    <circle
       style="fill:url(#linearGradient878);fill-opacity:1;stroke:none;stroke-width:0.529167;paint-order:markers stroke fill"
       id="path848"
       cx="6.3499999"
       cy="6.3499999"
       r="6.3499999" />
    <g
       clip-path="url(#c)"
       mask="url(#b)"
       transform="matrix(0.45861111,0,0,0.42740385,-347.69777,-17.686379)"
       id="g2634"
       style="fill:#ffffff">
      <path
         d="m 562.46094,212.05859 h 10.44922 c -1.1836,0.49219 -1.29688,2.46094 0,3 h -10.44922 z m 0,0"
         fill="#2e3436"
         id="path2632"
         style="fill:#ffffff" />
    </g>
    <g
       id="g3761"
       transform="translate(8.9126e-8,-0.9253241)">
      <path
         id="path2636"
         style="fill:#ffffff;stroke-width:0.442733"
         d="M 5.1464558,3.0234277 2.8308349,4.2641789 2.8148144,5.1524968 c 0.01787,0.016886 0.034131,0.035398 0.048576,0.055294 l 0.203605,0.3524328 0.203605,-0.3524332 c 0.052575,-0.09115 0.139192,-0.1576929 0.2408121,-0.1850017 0.1017268,-0.027228 0.2101041,-0.012914 0.3012737,0.039791 0.582635,0.336654 0.8687718,1.0274633 0.6945312,1.677417 C 4.428066,7.0356363 4.240618,7.2766715 4.0100902,7.471735 4.0014622,8.349903 4.0072777,7.2789974 4.4534731,7.3084363 l 0.3627687,0.036174 0.1043863,-0.3488159 c 0.028687,-0.083382 0.084324,-0.1548368 0.1581298,-0.2030886 l 0.059946,-3.3419136 2.2696289,1.3234333 -0.03514,1.9414837 c 0.00704,-0.00106 0.014102,-0.0019 0.021188,-0.00259 h 0.00103 c 0.219179,2.19e-5 0.3968531,0.177696 0.396875,0.396875 v -0.057364 l 0.08785,0.2919719 0.3234944,-0.032039 c -0.00251,-0.00873 -0.0085,-0.015489 -0.010853,-0.024289 C 8.0185388,6.6383203 8.3046756,5.9475109 8.8873103,5.6108567 9.0771089,5.5013147 9.3197702,5.5663175 9.429396,5.7560677 l 0.2036051,0.3524332 0.045992,-0.079582 0.05271,-2.9223022 -2.3156208,1.2402344 z"
         sodipodi:nodetypes="ccccccccccccccccccscccccccccccc" />
      <g
         transform="matrix(2.0680814,0,0,2.0680814,35.896865,-176.14182)"
         fill="#ffffff"
         id="g1321">
        <path
           d="m -12.7,88.768 v 0.39688 c 0,0.07463 -0.05766,0.13229 -0.13229,0.13229 h -0.39688 v 0.26458 h 0.39688 c 0.21762,0 0.39688,-0.17926 0.39688,-0.39688 v -0.39688 z"
           id="path1307"
           style="stroke:none;stroke-width:0.0511747;stroke-miterlimit:4;stroke-dasharray:none" />
        <path
           d="m -15.875,88.503 v 0.66146 c 0,0.21762 0.17926,0.39688 0.39688,0.39688 h 0.39688 v -0.26458 h -0.39688 c -0.07463,0 -0.13229,-0.05766 -0.13229,-0.13229 v -0.66146 z"
           id="path1309"
           style="stroke:none;stroke-width:0.0511747;stroke-miterlimit:4;stroke-dasharray:none" />
        <path
           style="color:#000000;fill:#ffffff;stroke-width:0.0511747;-inkscape-stroke:none;stroke:none"
           d="m -14.288,88.503 -0.21187,0.2589 -0.29456,-0.15813 -0.09612,0.32039 -0.3328,-0.03359 0.03359,0.3328 -0.31988,0.09612 h -5.29e-4 v 5.29e-4 l 0.15813,0.29404 -0.25889,0.21186 c 0,0.292253 0.236917,0.52917 0.52917,0.52917 h 1.5875 c 0.292253,0 0.52917,-0.236917 0.52917,-0.52917 l -0.2589,-0.21187 0.15813,-0.29456 -0.32039,-0.09612 0.03359,-0.3328 -0.3328,0.03359 -0.09612,-0.31988 v -5.29e-4 h -5.29e-4 l -0.29404,0.15813 z"
           id="path3884" />
        <path
           style="color:#000000;fill:#ffffff;stroke-width:0.0511747;-inkscape-stroke:none"
           d="m -12.435,88.045 a 0.52917,0.52917 0 0 1 0.24655,0.59523 0.52917,0.52917 0 0 1 -0.51114,0.39221 0.52917,0.52917 0 0 1 -0.51114,-0.39221 0.52917,0.52917 0 0 1 0.24655,-0.59523 l 0.26458,0.45827 z"
           id="path3773" />
        <path
           style="color:#000000;fill:#ffffff;stroke-width:0.0511747;-inkscape-stroke:none"
           d="m -15.61,87.78 a 0.52917,0.52917 0 0 1 0.24655,0.59523 0.52917,0.52917 0 0 1 -0.51114,0.39221 0.52917,0.52917 0 0 1 -0.51114,-0.39221 0.52917,0.52917 0 0 1 0.24655,-0.59523 l 0.26458,0.45827 z"
           id="path3765" />
        <g
           transform="matrix(0.26458,0,0,0.26458,-58.738,41.407)"
           id="g1319">
          <path
             d="m 171.5,183 v 1 h 2 c 0.28206,0 0.5,0.21794 0.5,0.5 v 1 h 1 v -1 c 0,-0.8225 -0.6775,-1.5 -1.5,-1.5 H 172 Z"
             id="path1311" />
          <path
             d="m 169.5,184 v 1 h 2 c 0.28206,0 0.5,0.21794 0.5,0.5 v 1 h 1 v -1 c 0,-0.8225 -0.6775,-1.5 -1.5,-1.5 H 170 Z"
             id="path1313" />
          <path
             d="m 162.5,183 c -0.8225,0 -1.5,0.6775 -1.5,1.5 v 1 h 1 v -1 c 0,-0.28206 0.21794,-0.5 0.5,-0.5 h 2 v -1 H 164 Z"
             id="path1315" />
          <path
             d="m 164.5,184 c -0.8225,0 -1.5,0.6775 -1.5,1.5 v 1 h 1 v -1 c 0,-0.28206 0.21794,-0.5 0.5,-0.5 h 2 v -1 H 166 Z"
             id="path1317" />
        </g>
      </g>
      <g
         transform="matrix(2.0680814,0,0,2.0680814,35.896865,-176.14182)"
         fill="#ffffff"
         id="g4268"
         style="fill:#e01b24" />
    </g>
    <g
       clip-path="url(#e)"
       mask="url(#d)"
       transform="matrix(0.45861111,0,0,0.42740385,-347.69777,-17.686379)"
       id="g2640"
       style="fill:#ffffff">
      <path
         d="m 16,632 h 1 v 1 h -1 z m 0,0"
         fill="#2e3436"
         fill-rule="evenodd"
         id="path2638"
         style="fill:#ffffff" />
    </g>
    <g
       clip-path="url(#g)"
       mask="url(#f)"
       transform="matrix(0.45861111,0,0,0.42740385,-347.69777,-17.686379)"
       id="g2644"
       style="fill:#ffffff">
      <path
         d="m 17,631 h 1 v 1 h -1 z m 0,0"
         fill="#2e3436"
         fill-rule="evenodd"
         id="path2642"
         style="fill:#ffffff" />
    </g>
    <g
       clip-path="url(#i)"
       mask="url(#h)"
       transform="matrix(0.45861111,0,0,0.42740385,-347.69777,-17.686379)"
       id="g2648"
       style="fill:#ffffff">
      <path
         d="m 18,634 h 1 v 1 h -1 z m 0,0"
         fill="#2e3436"
         fill-rule="evenodd"
         id="path2646"
         style="fill:#ffffff" />
    </g>
    <g
       clip-path="url(#k)"
       mask="url(#j)"
       transform="matrix(0.45861111,0,0,0.42740385,-347.69777,-17.686379)"
       id="g2652"
       style="fill:#ffffff">
      <path
         d="m 16,634 h 1 v 1 h -1 z m 0,0"
         fill="#2e3436"
         fill-rule="evenodd"
         id="path2650"
         style="fill:#ffffff" />
    </g>
    <g
       clip-path="url(#m)"
       mask="url(#l)"
       transform="matrix(0.45861111,0,0,0.42740385,-347.69777,-17.686379)"
       id="g2656"
       style="fill:#ffffff">
      <path
         d="m 17,635 h 1 v 1 h -1 z m 0,0"
         fill="#2e3436"
         fill-rule="evenodd"
         id="path2654"
         style="fill:#ffffff" />
    </g>
    <g
       clip-path="url(#o)"
       mask="url(#n)"
       transform="matrix(0.45861111,0,0,0.42740385,-347.69777,-17.686379)"
       id="g2660"
       style="fill:#ffffff">
      <path
         d="m 19,635 h 1 v 1 h -1 z m 0,0"
         fill="#2e3436"
         fill-rule="evenodd"
         id="path2658"
         style="fill:#ffffff" />
    </g>
    <g
       clip-path="url(#q)"
       mask="url(#p)"
       transform="matrix(0.45861111,0,0,0.42740385,-347.69777,-17.686379)"
       id="g2664"
       style="fill:#ffffff">
      <path
         d="m 136,660 v 7 h 7 v -7 z m 0,0"
         fill="#2e3436"
         id="path2662"
         style="fill:#ffffff" />
    </g>
    <g
       clip-path="url(#s)"
       mask="url(#r)"
       transform="matrix(0.45861111,0,0,0.42740385,-347.69777,-17.686379)"
       id="g2668"
       style="fill:#ffffff">
      <path
         d="m 199,642 h 3 v 12 h -3 z m 0,0"
         fill="#2e3436"
         id="path2666"
         style="fill:#ffffff" />
    </g>
    <g
       clip-path="url(#u)"
       mask="url(#t)"
       transform="matrix(0.45861111,0,0,0.42740385,-347.69777,-17.686379)"
       id="g2672"
       style="fill:#ffffff">
      <path
         d="m 209.5,144.16016 c 0.27734,0 0.5,0.22265 0.5,0.5 v 1 c 0,0.27734 -0.22266,0.5 -0.5,0.5 -0.27734,0 -0.5,-0.22266 -0.5,-0.5 v -1 c 0,-0.27735 0.22266,-0.5 0.5,-0.5 z m 0,0"
         fill="#2e3436"
         id="path2670"
         style="fill:#ffffff" />
    </g>
    <g
       clip-path="url(#w)"
       mask="url(#v)"
       transform="matrix(0.45861111,0,0,0.42740385,-347.69777,-17.686379)"
       id="g2676"
       style="fill:#ffffff">
      <path
         d="m 206.5,144.16016 c 0.27734,0 0.5,0.22265 0.5,0.5 v 1 c 0,0.27734 -0.22266,0.5 -0.5,0.5 -0.27734,0 -0.5,-0.22266 -0.5,-0.5 v -1 c 0,-0.27735 0.22266,-0.5 0.5,-0.5 z m 0,0"
         fill="#2e3436"
         id="path2674"
         style="fill:#ffffff" />
    </g>
    <g
       clip-path="url(#y)"
       mask="url(#x)"
       transform="matrix(0.45861111,0,0,0.42740385,-347.69777,-17.686379)"
       id="g2680"
       style="fill:#ffffff">
      <path
         d="m 229.5,143.16016 c -0.54688,0 -1,0.45703 -1,1 0,0.54687 0.45312,1 1,1 0.54687,0 1,-0.45313 1,-1 0,-0.54297 -0.45313,-1 -1,-1 z m 0,0"
         fill="#2e3436"
         id="path2678"
         style="fill:#ffffff" />
    </g>
    <g
       clip-path="url(#A)"
       mask="url(#z)"
       transform="matrix(0.45861111,0,0,0.42740385,-347.69777,-17.686379)"
       id="g2684"
       style="fill:#ffffff">
      <path
         d="m 226.45312,143.16016 c -0.51953,0 -0.95312,0.43359 -0.95312,0.95312 v 0.0937 c 0,0.51953 0.43359,0.95313 0.95312,0.95313 h 0.0937 c 0.51954,0 0.95313,-0.4336 0.95313,-0.95313 v -0.0937 c 0,-0.51953 -0.43359,-0.95312 -0.95313,-0.95312 z m 0,0"
         fill="#2e3436"
         id="path2682"
         style="fill:#ffffff" />
    </g>
  </g>
</svg>
